-0.0312213 0.0315218 1.99907
-0.0722624 0.0233929 2.99968
-0.0692694 0.00264521 3.99315
-0.0952994 -0.00344679 4.99135
-0.114684 -0.0156171 5.98348
-0.160753 -0.023075 6.97361
-0.201542 -0.0281838 7.96044
-0.240785 -0.0313437 8.947
-0.288176 -0.0441471 9.93064
-0.366571 -0.0553934 10.9091
-0.416242 -0.0633614 11.8875
-0.452235 -0.0723446 12.863
-0.481514 -0.0799241 13.8371
-0.533689 -0.101451 14.8023
-0.570758 -0.117147 15.7699
-0.612367 -0.142806 16.7338
-0.690069 -0.167219 17.691
-0.772055 -0.18098 18.6434
-0.846288 -0.183434 19.5932
-0.943289 -0.201029 20.5401
-0.986138 -0.223374 21.4917
-1.01426 -0.222699 22.4437
-1.08918 -0.242764 23.4012
-1.14625 -0.250169 24.3631
-1.20844 -0.260136 25.3262
-1.28625 -0.27707 26.3
-1.3651 -0.269284 27.284
-1.3889 -0.296313 28.2764
-1.45361 -0.316178 29.2668
-1.51086 -0.34357 30.2654
-1.57855 -0.391245 31.2776
-1.66392 -0.423376 32.3005
-1.70044 -0.448711 33.3389
-1.74772 -0.473569 34.3904
-1.77249 -0.531436 35.4527
-1.86731 -0.528889 36.5263
-1.97321 -0.548707 37.6134
-2.00123 -0.63816 38.7134
-2.08359 -0.654916 39.8265
-2.16409 -0.662906 40.953
-2.24062 -0.664598 42.0858
-2.3162 -0.699334 43.2254
-2.42651 -0.672771 44.3693
-2.40675 -0.681025 45.5307
-2.51747 -0.690244 46.7054
-2.58981 -0.69712 47.9068
-2.70844 -0.698528 49.1291
-2.79388 -0.707924 50.378
-2.88665 -0.70074 51.6439
-2.97411 -0.714784 52.9358
-3.04187 -0.715713 54.2501
-3.16885 -0.741088 55.5852
-3.35463 -0.766839 56.9372
-3.46141 -0.77273 58.3171
-3.57589 -0.794968 59.7172
-3.71349 -0.832703 61.1346
-3.83513 -0.859613 62.5775
-3.97493 -0.883687 64.0346
-4.11119 -0.881347 65.5153
-4.27268 -0.873965 67.0172
-4.4035 -0.887883 68.5417
-4.55293 -0.921787 70.086
-4.69138 -0.934801 71.6489
-4.85212 -0.950878 73.239
-4.9996 -0.971084 74.8472
-5.17578 -0.997649 76.4724
-5.37224 -1.0381 78.1107
-5.53208 -1.0516 79.7627
-5.7144 -1.04275 81.4299
-5.9187 -1.07465 83.1079
-6.08811 -1.08662 84.8044
-6.26496 -1.09976 86.5212
-6.42663 -1.11959 88.2519
-6.62005 -1.17843 89.9955
-6.78614 -1.20833 91.759
-7.20249 -1.15718 93.4906
-7.4121 -1.17426 95.2746
-7.67549 -1.21261 97.0656
-7.90096 -1.19692 98.8837
-8.05526 -1.21551 100.72
-8.31442 -1.21753 102.563
-8.54473 -1.24089 104.42
-8.77495 -1.29015 106.296
-9.0967 -1.367 108.171
-9.32891 -1.43079 110.071
-9.54634 -1.50716 111.982
-9.80637 -1.5298 113.895
-10.0038 -1.55844 115.83
-10.1357 -1.62745 117.778
-10.2416 -1.70746 119.742
-10.4185 -1.77815 121.712
-10.5704 -1.80972 123.696
-10.5464 -1.82987 125.697
-10.5609 -1.83346 127.706
-10.7295 -1.92063 129.713
-10.4637 -1.87298 131.721
-10.2702 -1.84703 133.753
-9.95827 -1.95026 135.777
-9.16896 -1.95633 137.673
-9.16896 -1.95633 137.673
-7.53297 -2.29608 138.904
-6.96804 -2.33475 140.915
-6.96804 -2.33475 140.915
-6.10498 -2.32997 142.835
-5.04464 -2.38967 144.663
-3.98408 -2.34885 146.509
-2.79089 -2.37841 148.27
-1.33406 -2.5436 149.833
0.0800099 -2.65565 151.451
1.61627 -2.7592 152.959
3.29692 -2.78098 154.325
5.10067 -2.73828 155.554
6.91411 -2.69645 156.765
8.76673 -2.90325 157.922
10.7824 -3.05925 158.791
12.6684 -3.26652 159.916
14.7862 -3.18022 160.585
16.9248 -3.28069 161.201
19.0841 -3.44293 161.76
21.198 -3.52529 162.513
23.4249 -3.52292 162.87
25.6036 -3.6049 163.476
27.8048 -3.58622 164.031
30.0307 -3.50999 164.523
32.2598 -3.47383 165.033
34.4962 -3.39094 165.539
36.7536 -3.34012 166.004
39.0287 -3.3746 166.43
41.3016 -3.33156 166.889
43.5972 -3.31877 167.255
45.9103 -3.29507 167.626
48.2253 -3.2624 168.024
50.5517 -3.22175 168.372
52.8997 -3.20731 168.674
55.2235 -3.1845 169.032
57.5805 -3.12922 169.361
59.9226 -3.07923 169.677
62.2649 -3.00956 170.085
64.6077 -2.91671 170.513
66.9744 -2.85865 170.813
69.3121 -2.75536 171.265
71.6691 -2.61692 171.658
74.07 -2.5938 171.854
76.4316 -2.55838 172.192
78.773 -2.39499 172.686
81.1557 -2.29406 172.98
83.5028 -2.21748 173.482
85.8542 -2.12158 173.986
88.23 -2.04223 174.348
90.6091 -1.9319 174.675
92.9789 -1.91646 175.118
95.352 -1.87113 175.523
97.6935 -1.83141 176.087
100.068 -1.80666 176.476
102.442 -1.82349 176.848
104.801 -1.80449 177.315
107.177 -1.85024 177.662
109.549 -1.85722 178.065
111.863 -1.80516 178.691
114.239 -1.77585 179.074
116.619 -1.7889 179.469
119.001 -1.81394 179.849
121.389 -1.81591 180.226
123.76 -1.8294 180.688
126.166 -1.8358 181.077
128.563 -1.85925 181.378
130.989 -1.87145 181.622
133.428 -1.87741 181.889
135.873 -1.89909 182.106
138.337 -1.92434 182.344
140.807 -1.97746 182.559
143.309 -2.0363 182.701
145.795 -2.06938 182.831
148.301 -2.06759 182.97
150.83 -2.08443 183.086
153.358 -2.07392 183.298
155.911 -2.07835 183.327
158.468 -2.08815 183.382
161.044 -2.12385 183.438
163.619 -2.17057 183.503
166.211 -2.13219 183.487
168.813 -2.12126 183.506
171.427 -2.06843 183.475
174.055 -2.05505 183.421
176.692 -2.02132 183.546
179.342 -1.97856 183.502
181.999 -1.91157 183.522
184.66 -1.78339 183.588
187.332 -1.818 183.773
190.011 -2.0325 183.936
192.679 -1.94841 184.27
195.348 -1.97558 184.629
197.988 -2.00942 185.155
200.645 -1.9987 185.634
203.23 -1.88441 186.412
205.748 -1.79226 187.388
208.283 -1.78036 188.333
210.845 -1.75898 189.198
213.107 -1.60225 190.694
214.182 -1.49228 193.184
216.579 -1.57119 194.458
218.997 -1.61308 195.704
221.132 -1.64583 197.381
223.107 -1.6326 199.264
224.952 -1.61248 201.263
226.695 -1.59617 203.351
228.241 -1.6504 205.601
229.668 -1.5987 207.918
230.939 -1.60254 210.324
232.105 -1.57247 212.781
233.18 -1.52341 215.28
234.033 -1.50994 217.855
234.667 -1.5034 220.498
235.207 -1.53045 223.164
235.819 -1.36047 225.78
236.123 -1.5152 228.464
236.507 -1.4694 231.143
236.958 -1.39063 233.82
237.416 -1.43886 236.496
237.416 -1.43886 236.496
237.921 -1.1634 239.133
237.921 -1.1634 239.133
238.477 -1.05533 241.768
238.987 -1.01727 244.416
239.447 -0.917263 247.072
239.793 -0.832024 249.742
240.257 -0.877771 252.386
240.551 -0.81713 255.069
240.959 -0.744947 257.728
241.417 -0.736662 260.383
242.087 -0.690121 262.992
242.627 -0.63424 265.621
243.273 -0.578661 268.24
243.827 -0.609249 270.868
244.356 -0.554852 273.499
244.746 -0.522884 276.154
245.216 -0.454686 278.795
245.743 -0.423331 281.431
246.244 -0.35725 284.064
246.695 -0.345891 286.709
247.012 -0.222892 289.362
247.475 -0.173799 292.001
247.954 -0.0993573 294.629
248.419 -0.0224083 297.262
248.938 0.0401788 299.882
249.365 0.0757718 302.509
249.789 0.192151 305.152
250.384 0.373087 307.756
250.925 0.379386 310.377
251.328 0.466977 313.014
251.695 0.476663 315.654
252.197 0.443312 318.28
252.614 0.435105 320.92
252.867 0.404287 323.576
253.357 0.407088 326.197
253.846 0.444758 328.819
254.3 0.482355 331.45
254.799 0.511831 334.069
255.266 0.500382 336.69
255.726 0.542206 339.315
256.103 0.620552 341.945
256.541 0.616693 344.578
257.01 0.680782 347.202
257.488 0.726235 349.822
258.116 0.784763 352.407
258.743 0.845231 354.997
259.234 0.889195 357.613
259.739 0.942087 360.229
260.177 1.01148 362.853
260.619 1.09457 365.474
261.055 1.1872 368.102
261.464 1.22404 370.733
261.918 1.23119 373.355
262.285 1.24695 375.991
262.684 1.28063 378.615
263.111 1.29097 381.254
263.372 1.26981 383.904
263.66 1.18015 386.549
263.979 1.20327 389.192
264.257 1.26654 391.832
264.679 1.26096 394.467
265.198 1.33958 397.077
265.631 1.26941 399.702
265.82 1.26043 402.356
266.114 1.29669 405.001
266.452 1.39524 407.644
266.592 1.43237 410.302
266.998 1.61665 412.924
267.39 1.7449 415.554
267.596 1.89128 418.197
267.728 1.92089 420.863
267.852 1.95443 423.521
267.984 1.95973 426.18
268.13 2.04669 428.839
268.305 2.09869 431.499
268.365 2.14101 434.165
268.464 2.17778 436.825
268.5 2.21857 439.49
268.578 2.25065 442.147
268.608 2.29613 444.818
268.686 2.36349 447.487
268.685 2.44351 450.149
268.559 2.43784 452.812
268.665 2.4381 455.475
268.625 2.47631 458.148
268.591 2.53696 460.816
268.556 2.58765 463.487
268.519 2.60724 466.153
268.554 2.70193 468.815
268.547 2.77107 471.491
268.405 2.81064 474.157
268.519 2.75442 476.822
268.402 2.80513 479.488
268.225 2.91416 482.139
268.073 2.94039 484.801
267.881 2.9614 487.454
267.694 3.00094 490.118
267.568 3.06508 492.802
267.313 3.08086 495.408
267.098 3.04357 498.058
266.848 3.04462 500.701
266.662 3.20039 503.349
266.427 3.27646 505.995
266.096 3.29688 508.628
265.751 3.35071 511.264
265.482 3.40629 513.911
265.083 3.38962 516.542
264.756 3.43986 519.175
264.423 3.52287 521.818
264.222 3.57041 524.47
264.01 3.62695 527.115
263.707 3.68243 529.761
263.435 3.66019 532.403
263.053 3.64416 535.037
262.751 3.64298 537.685
262.442 3.68368 540.326
262.134 3.70072 542.97
261.795 3.69881 545.607
261.449 3.71502 548.251
261.112 3.71499 550.888
260.811 3.73024 553.536
260.495 3.7492 556.166
260.227 3.74081 558.811
259.905 3.762 561.452
259.556 3.77573 564.083
259.231 3.81965 566.719
258.886 3.84657 569.351
258.606 3.89974 571.988
258.29 3.95914 574.628
257.972 4.02928 577.26
257.711 4.04892 579.9
257.414 4.04556 582.531
257.096 4.07054 585.16
256.746 4.06982 587.796
256.406 4.08243 590.429
256.094 4.07411 593.063
255.853 4.0755 595.705
255.607 4.11085 598.35
255.419 4.11683 600.998
255.165 4.12499 603.644
254.955 4.18969 606.288
254.578 4.21143 608.919
254.377 4.25903 611.569
254.304 4.36485 614.225
254.314 4.36492 616.882
254.195 4.39294 619.534
254.086 4.42722 622.183
253.926 4.50235 624.836
253.757 4.54619 627.487
253.653 4.56116 630.144
253.368 4.65116 632.784
253.219 4.66074 635.433
253.144 4.67059 638.093
253.049 4.70167 640.747
252.952 4.7187 643.398
252.748 4.73998 646.046
252.661 4.77553 648.704
252.539 4.84197 651.354
252.412 4.9136 654.001
252.066 4.97716 656.624
251.874 5.06986 659.262
251.681 5.16552 661.899
251.544 5.21994 664.546
251.324 5.29281 667.184
251.26 5.27476 669.834
251.105 5.34242 672.479
250.989 5.45239 675.122
250.8 5.5433 677.758
250.507 5.51374 680.391
250.28 5.54548 683.027
250.09 5.55327 685.673
249.803 5.58952 688.306
249.534 5.62413 690.94
249.329 5.70891 693.578
249.082 5.71864 696.217
248.884 5.74454 698.858
248.588 5.77731 701.494
249.099 5.5522 704.083
248.856 5.56796 706.723
248.6 5.67947 709.356
248.399 5.66992 711.998
248.13 5.74746 714.641
247.865 5.78192 717.28
247.594 5.83794 719.919
247.413 5.93531 722.566
247.148 5.94803 725.203
246.787 5.80857 727.831
246.098 5.8134 730.395
245.322 5.88916 732.93
244.814 5.95189 735.527
244.218 5.89815 738.115
243.18 5.91 740.553
241.873 5.81644 742.853
240.524 5.88945 745.133
238.916 5.81544 747.226
237.129 5.80584 749.178
235.385 5.8681 751.162
233.505 5.99532 753.014
231.559 5.99882 754.795
229.682 6.18167 756.636
227.335 6.31896 757.819
225.254 6.35932 759.429
223.02 6.54416 760.812
220.666 6.71976 761.982
218.3 6.94156 763.108
215.807 7.1873 763.933
213.312 7.49713 764.715
210.785 7.69581 765.442
208.223 7.93388 766.005
205.634 8.20866 766.422
203.028 8.3906 766.819
200.402 8.55421 767.022
197.769 8.7004 767.157
195.14 8.84314 767.029
192.507 9.09516 767.036
189.873 9.38463 767.11
187.235 9.62595 767.103
184.622 9.99706 766.881
182.053 10.2589 766.288
182.053 10.2589 766.288
179.417 10.5393 766.092
176.789 10.8193 765.838
174.155 11.0793 765.624
171.515 11.3368 765.501
168.934 11.6443 764.901
166.312 11.9566 764.594
163.674 12.2648 764.392
161.041 12.5609 764.12
158.395 12.8536 763.971
155.743 13.1454 763.847
153.102 13.4511 763.7
150.455 13.7213 763.517
147.815 13.9947 763.36
145.196 14.2902 763.1
142.556 14.5794 762.97
139.916 14.7835 762.779
137.285 15.0409 762.555
134.655 15.2938 762.423
132.021 15.4838 762.232
129.368 15.7148 762.108
126.784 15.9608 761.85
124.163 16.1756 761.686
121.56 16.3839 761.451
118.948 16.6211 761.263
116.342 16.8135 761.071
113.74 16.9631 760.834
111.137 17.1425 760.648
108.561 17.3871 760.34
105.991 17.6074 759.876
103.408 17.8557 759.676
100.822 18.0886 759.49
98.243 18.2641 759.199
